# Input: graph.txt
# Nodes: 768    Edges: 6056
# Algoritm: Clauset-Newman-Moore
# Modularity: 0.652774
# Communities: 3
# NId	CommunityId
0	0
10	0
15	0
16	0
18	0
20	0
27	0
29	0
42	0
49	0
55	0
61	0
69	0
76	0
79	0
86	0
103	0
119	0
129	0
132	0
144	0
168	0
204	0
229	0
253	0
266	0
268	0
291	0
296	0
305	0
329	0
344	0
349	0
359	0
376	0
391	0
400	0
410	0
414	0
433	0
441	0
443	0
444	0
1	0
24	0
54	0
87	0
91	0
149	0
170	0
180	0
185	0
187	0
196	0
197	0
220	0
221	0
232	0
238	0
276	0
287	0
314	0
395	0
407	0
459	0
2	0
3	0
5	0
7	0
30	0
44	0
84	0
99	0
112	0
123	0
142	0
143	0
151	0
210	0
227	0
239	0
290	0
295	0
301	0
345	0
375	0
392	0
398	0
405	0
416	0
447	0
470	0
496	0
39	0
53	0
60	0
73	0
102	0
125	0
136	0
157	0
164	0
173	0
192	0
198	0
215	0
234	0
250	0
251	0
257	0
275	0
279	0
294	0
307	0
377	0
390	0
351	0
80	0
104	0
182	0
202	0
236	0
240	0
264	0
265	0
292	0
297	0
303	0
334	0
384	0
403	0
421	0
438	0
439	0
457	0
460	0
469	0
48	0
124	0
219	0
243	0
337	0
368	0
440	0
453	0
163	0
328	0
134	0
309	0
72	0
90	0
105	0
107	0
118	0
122	0
135	0
139	0
160	0
212	0
216	0
222	0
228	0
235	0
256	0
300	0
313	0
323	0
339	0
340	0
360	0
365	0
367	0
369	0
371	0
374	0
396	0
404	0
445	0
455	0
462	0
471	0
474	0
495	0
506	0
442	0
36	0
52	0
94	0
161	0
205	0
208	0
289	0
315	0
326	0
331	0
355	0
361	0
363	0
364	0
408	0
492	0
189	0
366	0
420	0
434	0
477	0
501	0
153	0
244	0
270	0
272	0
387	0
427	0
435	0
483	0
140	0
158	0
230	0
262	0
311	0
330	0
431	0
473	0
478	0
372	0
454	0
472	0
141	0
145	0
209	0
428	0
446	0
252	0
263	0
281	0
310	0
336	0
485	0
362	0
432	0
456	0
502	0
278	0
488	0
200	0
237	0
370	0
497	0
70	0
169	0
254	0
233	0
505	0
373	0
419	0
246	0
17	1
11	1
4	1
6	1
8	1
9	1
12	1
13	1
14	1
19	1
23	1
25	1
26	1
31	1
32	1
35	1
37	1
38	1
41	1
46	1
50	1
57	1
58	1
63	1
64	1
66	1
68	1
78	1
83	1
100	1
101	1
109	1
113	1
115	1
117	1
120	1
133	1
138	1
146	1
155	1
166	1
171	1
174	1
186	1
195	1
207	1
223	1
225	1
226	1
259	1
260	1
285	1
286	1
299	1
302	1
304	1
312	1
319	1
322	1
348	1
352	1
353	1
379	1
380	1
415	1
429	1
463	1
480	1
490	1
493	1
500	1
503	1
21	1
22	1
28	1
33	1
34	1
82	1
85	1
116	1
131	1
150	1
179	1
190	1
191	1
194	1
261	1
271	1
283	1
306	1
343	1
350	1
354	1
356	1
394	1
409	1
412	1
426	1
499	1
508	1
40	1
43	1
45	1
47	1
56	1
59	1
71	1
74	1
75	1
89	1
95	1
97	1
98	1
111	1
114	1
121	1
127	1
148	1
154	1
177	1
183	1
214	1
231	1
242	1
248	1
269	1
274	1
280	1
332	1
386	1
401	1
406	1
411	1
423	1
425	1
436	1
467	1
487	1
489	1
504	1
510	1
51	1
62	1
67	1
92	1
93	1
106	1
110	1
126	1
128	1
159	1
165	1
172	1
175	1
181	1
188	1
201	1
206	1
213	1
245	1
247	1
255	1
284	1
298	1
316	1
325	1
338	1
341	1
342	1
378	1
413	1
424	1
430	1
450	1
452	1
465	1
468	1
481	1
484	1
494	1
402	1
77	1
81	1
147	1
193	1
199	1
211	1
217	1
267	1
273	1
282	1
288	1
327	1
357	1
381	1
382	1
383	1
399	1
417	1
422	1
448	1
451	1
458	1
475	1
509	1
96	1
156	1
162	1
178	1
184	1
258	1
277	1
318	1
321	1
333	1
389	1
466	1
507	1
88	1
137	1
167	1
203	1
218	1
317	1
346	1
397	1
437	1
491	1
498	1
176	1
241	1
335	1
482	1
108	1
320	1
461	1
224	1
324	1
385	1
393	1
347	1
249	1
388	1
449	1
476	1
152	1
308	1
358	1
130	1
511	1
65	1
464	1
293	1
479	1
486	1
418	1
692	2
711	2
557	2
517	2
624	2
721	2
572	2
658	2
741	2
516	2
528	2
766	2
561	2
716	2
690	2
635	2
755	2
532	2
608	2
744	2
565	2
649	2
559	2
598	2
560	2
666	2
708	2
519	2
715	2
720	2
633	2
751	2
679	2
683	2
731	2
536	2
512	2
520	2
543	2
544	2
589	2
513	2
521	2
522	2
523	2
524	2
525	2
527	2
529	2
539	2
545	2
550	2
564	2
571	2
578	2
593	2
594	2
601	2
603	2
615	2
616	2
620	2
634	2
647	2
665	2
688	2
702	2
704	2
723	2
732	2
733	2
743	2
758	2
514	2
530	2
531	2
537	2
538	2
555	2
567	2
584	2
614	2
617	2
636	2
643	2
644	2
655	2
656	2
673	2
680	2
689	2
736	2
753	2
760	2
515	2
540	2
548	2
549	2
556	2
568	2
569	2
573	2
574	2
581	2
588	2
590	2
597	2
606	2
610	2
611	2
621	2
627	2
648	2
693	2
738	2
752	2
534	2
562	2
576	2
607	2
612	2
622	2
628	2
646	2
653	2
705	2
757	2
558	2
582	2
618	2
669	2
671	2
697	2
518	2
526	2
554	2
579	2
609	2
613	2
640	2
694	2
703	2
745	2
765	2
547	2
563	2
566	2
592	2
619	2
630	2
639	2
652	2
672	2
533	2
535	2
541	2
542	2
546	2
570	2
583	2
586	2
596	2
604	2
626	2
642	2
650	2
659	2
663	2
664	2
667	2
676	2
681	2
684	2
691	2
700	2
714	2
739	2
742	2
763	2
551	2
637	2
641	2
670	2
695	2
696	2
747	2
761	2
553	2
602	2
605	2
706	2
726	2
756	2
580	2
599	2
631	2
638	2
654	2
660	2
661	2
662	2
677	2
678	2
698	2
699	2
707	2
709	2
713	2
727	2
759	2
552	2
587	2
629	2
717	2
728	2
735	2
585	2
718	2
746	2
600	2
632	2
674	2
710	2
750	2
591	2
595	2
645	2
657	2
734	2
737	2
740	2
749	2
764	2
577	2
575	2
625	2
719	2
729	2
682	2
623	2
687	2
722	2
724	2
730	2
762	2
668	2
701	2
712	2
767	2
725	2
686	2
675	2
685	2
651	2
748	2
754	2
